…
``` r
# Select those with start=5 and end time=13
created_time <- substr(ubc_tweets$created_time, start = 5, stop = 13)

# Format the time to month, day, and hour
created_time <- strptime(created_time,format='%b %d %H')

# Save the results in a DataFrame
created_time_df <- as.data.frame(created_time)

created_time_df <-  created_time_df %>% group_by(created_time) %>% summarize(num_tweets = n())

created_time_df
#> # A tibble: 36 × 2
#>    created_time        num_tweets
#>    <dttm>                   <int>
#>  1 2022-02-18 19:00:00          1
#>  2 2022-02-18 20:00:00          9
#>  3 2022-02-18 21:00:00         10
#>  4 2022-02-18 22:00:00          1
#>  5 2022-02-18 23:00:00          6
#>  6 2022-02-19 00:00:00          4
#>  7 2022-02-19 01:00:00          3
#>  8 2022-02-19 02:00:00          2
#>  9 2022-02-19 03:00:00          1
#> 10 2022-02-19 06:00:00          2
#> # … with 26 more rows
```
…
